…
chs_merged %>%
  select(obesity_level, bmi)
```

    ## # A tibble: 1,200 x 2
    ##    obesity_level   bmi
    ##    <fct>         <dbl>
    ##  1 Normal         16.2
    ##  2 Normal         16.6
    ##  3 Obese          30.9
    ##  4 Underweight    13.4
    ##  5 Normal         15.9
    ##  6 <NA>           NA  
    ##  7 Normal         18.3
    ##  8 Normal         16.9
    ##  9 <NA>           NA  
    ## 10 Normal         16.9
    ## # ... with 1,190 more rows
…
